/Users/andrecastro/Desktop/Bootcamp_Repo/Team Delta/hackaton-delta-team/Hackthon/src/main/java/org/academiadecodigo/hackathon/persistence/dao/UserDao.java
/Users/andrecastro/Desktop/Bootcamp_Repo/Team Delta/hackaton-delta-team/Hackthon/src/main/java/org/academiadecodigo/hackathon/persistence/model/product/GamingProduct.java
/Users/andrecastro/Desktop/Bootcamp_Repo/Team Delta/hackaton-delta-team/Hackthon/src/main/java/org/academiadecodigo/hackathon/persistence/dao/GenericDao.java
/Users/andrecastro/Desktop/Bootcamp_Repo/Team Delta/hackaton-delta-team/Hackthon/src/main/java/org/academiadecodigo/hackathon/persistence/model/order/Order.java
/Users/andrecastro/Desktop/Bootcamp_Repo/Team Delta/hackaton-delta-team/Hackthon/src/main/java/org/academiadecodigo/hackathon/command/OrderDto.java
/Users/andrecastro/Desktop/Bootcamp_Repo/Team Delta/hackaton-delta-team/Hackthon/src/main/java/org/academiadecodigo/hackathon/command/OrderItemDto.java
/Users/andrecastro/Desktop/Bootcamp_Repo/Team Delta/hackaton-delta-team/Hackthon/src/main/java/org/academiadecodigo/hackathon/persistence/model/Model.java
/Users/andrecastro/Desktop/Bootcamp_Repo/Team Delta/hackaton-delta-team/Hackthon/src/main/java/org/academiadecodigo/hackathon/persistence/model/product/Product.java
/Users/andrecastro/Desktop/Bootcamp_Repo/Team Delta/hackaton-delta-team/Hackthon/src/main/java/org/academiadecodigo/hackathon/persistence/model/product/TripProduct.java
/Users/andrecastro/Desktop/Bootcamp_Repo/Team Delta/hackaton-delta-team/Hackthon/src/main/java/org/academiadecodigo/hackathon/services/OrderService.java
/Users/andrecastro/Desktop/Bootcamp_Repo/Team Delta/hackaton-delta-team/Hackthon/src/main/java/org/academiadecodigo/hackathon/persistence/model/product/BusProduct.java
/Users/andrecastro/Desktop/Bootcamp_Repo/Team Delta/hackaton-delta-team/Hackthon/src/main/java/org/academiadecodigo/hackathon/persistence/dao/AddressDao.java
/Users/andrecastro/Desktop/Bootcamp_Repo/Team Delta/hackaton-delta-team/Hackthon/src/main/java/org/academiadecodigo/hackathon/services/ProductService.java
/Users/andrecastro/Desktop/Bootcamp_Repo/Team Delta/hackaton-delta-team/Hackthon/src/main/java/org/academiadecodigo/hackathon/persistence/model/Address.java
/Users/andrecastro/Desktop/Bootcamp_Repo/Team Delta/hackaton-delta-team/Hackthon/src/main/java/org/academiadecodigo/hackathon/converters/UserToUserDto.java
/Users/andrecastro/Desktop/Bootcamp_Repo/Team Delta/hackaton-delta-team/Hackthon/src/main/java/org/academiadecodigo/hackathon/persistence/model/AbstractModel.java
/Users/andrecastro/Desktop/Bootcamp_Repo/Team Delta/hackaton-delta-team/Hackthon/src/main/java/org/academiadecodigo/hackathon/command/UserDto.java
/Users/andrecastro/Desktop/Bootcamp_Repo/Team Delta/hackaton-delta-team/Hackthon/src/main/java/org/academiadecodigo/hackathon/persistence/model/product/ProductType.java
/Users/andrecastro/Desktop/Bootcamp_Repo/Team Delta/hackaton-delta-team/Hackthon/src/main/java/org/academiadecodigo/hackathon/services/OrderItemService.java
/Users/andrecastro/Desktop/Bootcamp_Repo/Team Delta/hackaton-delta-team/Hackthon/src/main/java/org/academiadecodigo/hackathon/persistence/model/order/OrderItem.java
/Users/andrecastro/Desktop/Bootcamp_Repo/Team Delta/hackaton-delta-team/Hackthon/src/main/java/org/academiadecodigo/hackathon/converters/AbstractConverter.java
/Users/andrecastro/Desktop/Bootcamp_Repo/Team Delta/hackaton-delta-team/Hackthon/src/main/java/org/academiadecodigo/hackathon/controllers/rest/UserController.java
/Users/andrecastro/Desktop/Bootcamp_Repo/Team Delta/hackaton-delta-team/Hackthon/src/main/java/org/academiadecodigo/hackathon/persistence/dao/OrderDao.java
/Users/andrecastro/Desktop/Bootcamp_Repo/Team Delta/hackaton-delta-team/Hackthon/src/main/java/org/academiadecodigo/hackathon/persistence/dao/OrderItemDao.java
/Users/andrecastro/Desktop/Bootcamp_Repo/Team Delta/hackaton-delta-team/Hackthon/src/main/java/org/academiadecodigo/hackathon/persistence/model/User.java
/Users/andrecastro/Desktop/Bootcamp_Repo/Team Delta/hackaton-delta-team/Hackthon/src/main/java/org/academiadecodigo/hackathon/converters/UserDtoToUser.java
/Users/andrecastro/Desktop/Bootcamp_Repo/Team Delta/hackaton-delta-team/Hackthon/src/main/java/org/academiadecodigo/hackathon/controllers/rest/OrderController.java
/Users/andrecastro/Desktop/Bootcamp_Repo/Team Delta/hackaton-delta-team/Hackthon/src/main/java/org/academiadecodigo/hackathon/services/UserService.java
/Users/andrecastro/Desktop/Bootcamp_Repo/Team Delta/hackaton-delta-team/Hackthon/src/main/java/org/academiadecodigo/hackathon/converters/OrderToOrderDto.java
/Users/andrecastro/Desktop/Bootcamp_Repo/Team Delta/hackaton-delta-team/Hackthon/src/main/java/org/academiadecodigo/hackathon/converters/OrderDtoToOrder.java
/Users/andrecastro/Desktop/Bootcamp_Repo/Team Delta/hackaton-delta-team/Hackthon/src/main/java/org/academiadecodigo/hackathon/persistence/dao/ProductDao.java
/Users/andrecastro/Desktop/Bootcamp_Repo/Team Delta/hackaton-delta-team/Hackthon/src/main/java/org/academiadecodigo/hackathon/services/AddressService.java
